%YAML 1.1
%TAG !u! tag:unity3d.com,2011:
--- !u!221 &22100000
AnimatorOverrideController:
  m_ObjectHideFlags: 0
  m_CorrespondingSourceObject: {fileID: 0}
  m_PrefabInternal: {fileID: 0}
  m_Name: WolfAnimationController
  m_Controller: {fileID: 9100000, guid: cb75d5ef3f3022941bb9ec8efa9fe844, type: 2}
  m_Clips:
  - m_OriginalClip: {fileID: 7400000, guid: 227cbbfa6907d5247bd088fbaa9807bc, type: 2}
    m_OverrideClip: {fileID: 7400000, guid: 941f00641f73f4d4a84164a70e7dcba8, type: 2}
  - m_OriginalClip: {fileID: 7400000, guid: cd2ca1c07cce7814e9f91e6178167777, type: 2}
    m_OverrideClip: {fileID: 7400000, guid: 2c4e42c0ff585af4cac75f095fa6ed3d, type: 2}
  - m_OriginalClip: {fileID: 7400000, guid: 4485a66ab2c99c047b65ec42db70e547, type: 2}
    m_OverrideClip: {fileID: 7400000, guid: 2c4e42c0ff585af4cac75f095fa6ed3d, type: 2}
  - m_OriginalClip: {fileID: 7400000, guid: 1f929e40fd787244c96b7ed29b6367ee, type: 2}
    m_OverrideClip: {fileID: 7400000, guid: 97ab1bca03951804da1138ec82a5da7b, type: 2}
