%YAML 1.1
%TAG !u! tag:unity3d.com,2011:
--- !u!221 &22100000
AnimatorOverrideController:
  m_ObjectHideFlags: 0
  m_CorrespondingSourceObject: {fileID: 0}
  m_PrefabInternal: {fileID: 0}
  m_Name: RabbitAnimationController
  m_Controller: {fileID: 9100000, guid: cb75d5ef3f3022941bb9ec8efa9fe844, type: 2}
  m_Clips:
  - m_OriginalClip: {fileID: 7400000, guid: 227cbbfa6907d5247bd088fbaa9807bc, type: 2}
    m_OverrideClip: {fileID: 7400000, guid: dd8a167d279f2b540b2dc89d59c15355, type: 2}
  - m_OriginalClip: {fileID: 7400000, guid: 1f929e40fd787244c96b7ed29b6367ee, type: 2}
    m_OverrideClip: {fileID: 7400000, guid: 0d30a1f54ae4f3240901b19d2222bf05, type: 2}
