%YAML 1.1
%TAG !u! tag:unity3d.com,2011:
--- !u!114 &11400000
MonoBehaviour:
  m_ObjectHideFlags: 0
  m_CorrespondingSourceObject: {fileID: 0}
  m_PrefabInternal: {fileID: 0}
  m_GameObject: {fileID: 0}
  m_Enabled: 1
  m_EditorHideFlags: 0
  m_Script: {fileID: 11500000, guid: 0aaa6a80f17504740872575dad1663a1, type: 3}
  m_Name: HealthPotion
  m_EditorClassIdentifier: 
  itemName: Potion Of Health
  itemDescription: 'Restores 20%

    Health Points'
  itemNameColour: {r: 1, g: 0.4972187, b: 0.3066038, a: 1}
  type: 50
  sprite: {fileID: 21300000, guid: c45cd9d77c94a7f48a69a0f5d2b1d55a, type: 3}
  prefab: {fileID: 1363215661162380, guid: ab1a05b59da10924982dd04e213df085, type: 2}
  healingAmount: 20
