%YAML 1.1
%TAG !u! tag:unity3d.com,2011:
--- !u!114 &11400000
MonoBehaviour:
  m_ObjectHideFlags: 0
  m_CorrespondingSourceObject: {fileID: 0}
  m_PrefabInternal: {fileID: 0}
  m_GameObject: {fileID: 0}
  m_Enabled: 1
  m_EditorHideFlags: 0
  m_Script: {fileID: 11500000, guid: c4d14c3aaa3bbb54a98d6279fe81f042, type: 3}
  m_Name: Wood
  m_EditorClassIdentifier: 
  type: 10
  sprite: {fileID: 21300004, guid: a2d185587d4007d43a1df612a8179579, type: 3}
  prefab: {fileID: 0}
