%YAML 1.1
%TAG !u! tag:unity3d.com,2011:
--- !u!114 &11400000
MonoBehaviour:
  m_ObjectHideFlags: 0
  m_CorrespondingSourceObject: {fileID: 0}
  m_PrefabInternal: {fileID: 0}
  m_GameObject: {fileID: 0}
  m_Enabled: 1
  m_EditorHideFlags: 0
  m_Script: {fileID: 11500000, guid: 4fe6563362e6b59468d1864bbd72716b, type: 3}
  m_Name: ItemDatabase
  m_EditorClassIdentifier: 
  data:
  - {fileID: 11400000, guid: e0d4d028976b5c645bec95fd23d46ef5, type: 2}
  - {fileID: 11400000, guid: e5f21f2e48192714eb8cbff3d9171926, type: 2}
